[
    {
        "id": "1c4caee9.efc961",
        "type": "tab",
        "label": "Demo DAC VRef",
        "disabled": false,
        "info": "",
        "env": []
    },
    {
        "id": "b2c5a655.df1cd8",
        "type": "inject",
        "z": "1c4caee9.efc961",
        "name": "",
        "props": [
            {
                "p": "payload"
            },
            {
                "p": "topic",
                "vt": "str"
            }
        ],
        "repeat": "",
        "crontab": "",
        "once": false,
        "onceDelay": 0.1,
        "topic": "",
        "payload": "0",
        "payloadType": "num",
        "x": 130,
        "y": 40,
        "wires": [
            [
                "7b6abd0d2f0218fc",
                "cb4c9cf18e1cd407"
            ]
        ]
    },
    {
        "id": "5c39cbf0.917d24",
        "type": "inject",
        "z": "1c4caee9.efc961",
        "name": "",
        "props": [
            {
                "p": "payload"
            },
            {
                "p": "topic",
                "vt": "str"
            }
        ],
        "repeat": "",
        "crontab": "",
        "once": false,
        "onceDelay": 0.1,
        "topic": "",
        "payload": "2.6",
        "payloadType": "num",
        "x": 130,
        "y": 80,
        "wires": [
            [
                "7b6abd0d2f0218fc",
                "cb4c9cf18e1cd407"
            ]
        ]
    },
    {
        "id": "24fc1662.7b596a",
        "type": "inject",
        "z": "1c4caee9.efc961",
        "name": "",
        "props": [
            {
                "p": "payload"
            },
            {
                "p": "topic",
                "vt": "str"
            }
        ],
        "repeat": "",
        "crontab": "",
        "once": false,
        "onceDelay": 0.1,
        "topic": "",
        "payload": "5",
        "payloadType": "str",
        "x": 130,
        "y": 120,
        "wires": [
            [
                "7b6abd0d2f0218fc",
                "cb4c9cf18e1cd407"
            ]
        ]
    },
    {
        "id": "094db2452e34fed8",
        "type": "comment",
        "z": "1c4caee9.efc961",
        "name": "Jumper Hardware for 3.3 volts",
        "info": "",
        "x": 180,
        "y": 180,
        "wires": []
    },
    {
        "id": "5af9426931be2320",
        "type": "comment",
        "z": "1c4caee9.efc961",
        "name": "Inject zero, both off.  Inject 5 volts, both full on.",
        "info": "",
        "x": 230,
        "y": 220,
        "wires": []
    },
    {
        "id": "62ccfbcb19534e77",
        "type": "comment",
        "z": "1c4caee9.efc961",
        "name": "The interesting part is 2.5, dim over bright.",
        "info": "",
        "x": 220,
        "y": 260,
        "wires": []
    },
    {
        "id": "a9f84ffd96b48092",
        "type": "comment",
        "z": "1c4caee9.efc961",
        "name": "Labeled as LEDB on top of board",
        "info": "",
        "x": 650,
        "y": 40,
        "wires": []
    },
    {
        "id": "ece95956b35dbe08",
        "type": "comment",
        "z": "1c4caee9.efc961",
        "name": "Labeled as LEDA on bottom of board",
        "info": "",
        "x": 660,
        "y": 120,
        "wires": []
    },
    {
        "id": "7b6abd0d2f0218fc",
        "type": "analogoutput",
        "z": "1c4caee9.efc961",
        "name": "DAC1 VRef 5.0",
        "port": "B",
        "scale": "voltage",
        "vref": "vref-50",
        "x": 420,
        "y": 40,
        "wires": []
    },
    {
        "id": "cb4c9cf18e1cd407",
        "type": "analogoutput",
        "z": "1c4caee9.efc961",
        "name": "DAC0 VRef 3.3",
        "port": "A",
        "scale": "voltage",
        "vref": "vref-33",
        "x": 420,
        "y": 120,
        "wires": []
    }
]